<svg xmlns="http://www.w3.org/2000/svg" xmlns:xlink="http://www.w3.org/1999/xlink" version="1.1" width="144.54794311523438" height="144" enable-background="new 0 0 144 144" xml:space="preserve" style=""><rect id="backgroundrect" width="100%" height="100%" x="0" y="0" fill="none" stroke="none"/>


<g class="currentLayer" style=""><title>Layer 1</title><g class="selected"><g id="svg_1" class="" fill="#cac4ce" fill-opacity="1">
	<circle fill="#cac4ce" cx="72.27397155761719" cy="71.72602844238281" r="72" id="svg_2" fill-opacity="1"/>
</g><path fill="#ffffff" stroke-dashoffset="" fill-rule="nonzero" marker-start="" marker-mid="" marker-end="" id="svg_5" d="M73.37462108958982,38.86283009036519 L58.184928843405324,23.657343021393984 L68.18854001895372,23.657343021393984 L83.37823226513845,38.86283009036519 L68.18854001895372,54.068304917660214 L58.184928843405324,54.068304917660214 L73.37462108958982,38.86283009036519 z" style="color: rgb(142, 32, 32);" class="" fill-opacity="1" transform="rotate(89.33920288085938 70.78157806396483,38.86282348632813) "/><foreignObject fill="" stroke-dashoffset="" fill-rule="nonzero" font-size="78" font-family="Arial, Helvetica, sans-serif" letter-spacing="0" word-spacing="0" marker-start="" marker-mid="" marker-end="" id="svg_3" x="44.94520568847656" y="45.66536235809326" width="57" height="79.96027374267578" style="color: rgb(255, 255, 255);" class=""><p style="border: none;outline: none;font-size: inherit;line-height: 1em;padding:0;margin:0;" xmlns="http://www.w3.org/1999/xhtml"><p xmlns="http://www.w3.org/1999/xhtml" style="border: none;outline: none;font-size: inherit;line-height: 1em;padding:0;margin:0;"></p><p xmlns="http://www.w3.org/1999/xhtml" style="border: none;outline: none;font-size: inherit;line-height: 1em;padding:0;margin:0;"></p><p xmlns="http://www.w3.org/1999/xhtml" style="border: none;outline: none;font-size: inherit;line-height: 1em;padding:0;margin:0;"></p><p xmlns="http://www.w3.org/1999/xhtml" style="border: none;outline: none;font-size: inherit;line-height: 1em;padding:0;margin:0;"></p><p xmlns="http://www.w3.org/1999/xhtml" style="border: none;outline: none;font-size: inherit;line-height: 1em;padding:0;margin:0;">S</p><p style="border: none;outline: none;font-size: inherit;line-height: 1em;padding:0;margin:0;"></p><p style="border: none;outline: none;font-size: inherit;line-height: 1em;padding:0;margin:0;"></p><p style="border: none;outline: none;font-size: inherit;line-height: 1em;padding:0;margin:0;"></p><p style="border: none;outline: none;font-size: inherit;line-height: 1em;padding:0;margin:0;"></p></p></foreignObject></g></g><style xmlns="http://www.w3.org/1999/xhtml">@import url(http://fonts.googleapis.com/css?family=Nova+Mono);</style></svg>